…
  mutate(g2_educ = fct_relevel(g2_educ, 
                               "Less than high school",
                               "High school",
                               "Some college",
                               "College")) %>%
  # Optional: Rename variables to their roles for this lesson
  rename(id = g3_id,
         confounder = g2_educ,
         treatment = g3_educ,
         outcome = g3_log_income) %>%
  select(id, confounder, treatment, outcome) %>%
  print()
```

    ## # A tibble: 1,365 × 4
    ##       id confounder            treatment             outcome
    ##    <dbl> <fct>                 <chr>                   <dbl>
    ##  1     1 Less than high school High school             10.7 
    ##  2     4 High school           Some college            11.5 
    ##  3     7 High school           High school             11.2 
    ##  4     9 Less than high school High school             10.7 
    ##  5    10 Less than high school High school             10.7 
    ##  6    11 High school           Some college            11.3 
    ##  7    12 High school           Some college            11.5 
    ##  8    13 Less than high school Less than high school    9.99
    ##  9    19 High school           Less than high school   11.1 
    ## 10    21 High school           Less than high school   10.4 
    ## # … with 1,355 more rows
…
