…
Finally, predict outcomes to estimate the conditional average causal
effect for each respondent at their observed value of the confounding
variables.

``` r
conditional_average_effect <- d %>%
  mutate(yhat_College = predict(fit, newdata = d_College),
         yhat_HighSchool = predict(fit, newdata = d_HighSchool),
         effect_of_college = yhat_College - yhat_HighSchool) %>%
  select(g3_id, race, g2_educ, g2_log_income, effect_of_college) %>%
  print()
```

    ## # A tibble: 1,365 × 5
    ##    g3_id race  g2_educ               g2_log_income effect_of_college
    ##    <dbl> <chr> <fct>                         <dbl>             <dbl>
    ##  1     1 White Less than high school          11.3             0.498
    ##  2     4 White High school                    12.1             0.374
    ##  3     7 White High school                    11.4             0.419
    ##  4     9 White Less than high school          11.3             0.498
    ##  5    10 White Less than high school          11.3             0.498
    ##  6    11 White High school                    12.1             0.374
    ##  7    12 White High school                    12.1             0.374
    ##  8    13 White Less than high school          11.6             0.479
    ##  9    19 White High school                    11.0             0.442
    ## 10    21 White High school                    11.0             0.442
    ## # … with 1,355 more rows
…
